Note: Unnecessary use of -X or --request, POST is already inferred.
* Host localhost:9565 was resolved.
* IPv6: ::1
* IPv4: 127.0.0.1
  % Total    % Received % Xferd  Average Speed   Time    Time     Time  Current
                                 Dload  Upload   Total   Spent    Left  Speed
  0     0    0     0    0     0      0      0 --:--:-- --:--:-- --:--:--     0*   Trying [::1]:9565...
* Connected to localhost (::1) port 9565
> POST /api/quotation/manage-quotation/get HTTP/1.1
> Host: localhost:9565
> User-Agent: curl/8.7.1
> accept: application/json
> Authorization: Bearer eyJhbGciOiJIUzI1NiIsInR5cCI6IkpXVCJ9.eyJ1c2VyX2lkIjoiZjBiNTcyNTgtNWYzMy00ZTAzLTgxZjctY2Q3MGQ4MzNiNWM1IiwiZW1wbG95ZWVfaWQiOiJmMGI1NzI1OC01ZjMzLTRlMDMtODFmNy1jZDcwZDgzM2I1YzUiLCJpYXQiOjE3Njc3NTgxNDQsImV4cCI6MTc2Nzg0NDU0NCwiYXVkIjoic3RyaW5nIiwiaXNzIjoiaHR0cDovL2xvY2FsaG9zdDozMDAwIn0.A7vShCo5uGjjqtz-yVvkH5ImcQKLc9SciA0bVvg4Mq
> Content-Type: application/json
> Content-Length: 131
> 
} [131 bytes data]
* upload completely sent off: 131 bytes
< HTTP/1.1 200 OK
< X-Powered-By: Express
< Vary: X-HTTP-Method-Override, Accept-Encoding
< Content-Type: application/json; charset=utf-8
< Content-Length: 2009
< ETag: W/"7d9-E6/duf7cN94C6cu2lHMmY71ytwk"
< Date: Wed, 07 Jan 2026 07:00:59 GMT
< Connection: keep-alive
< Keep-Alive: timeout=5
< 
{ [2009 bytes data]
100  2140  100  2009  100   131  33681   2196 --:--:-- --:--:-- --:--:-- 36271
* Connection #0 to host localhost left intact
{"status":true,"message":"Data berhasil diambil","data":{"items":[{"manage_quotation_id":"5e29d66d-561b-4976-b3eb-49c317803c4b","manage_quotation_no":"012/IEC-MSI/I/2026","customer_id":"6c6a981a-6ffb-4b7a-88f2-c848d1d0ae2f","customer_name":"EKA SRI MAHYUNI - Pandu","contact_person":"Pandu","employee_id":"8b2f5352-d714-43db-a653-a2b1162d2caf","employee_name":"admin ku ya","island_id":"b039e457-96cf-48bf-b3b2-948419f88ed2","island_name":"IWIP","manage_quotation_date":"2025-01-14T17:00:00.000Z","manage_quotation_valid_date":"2025-01-29T17:00:00.000Z","manage_quotation_grand_total":"1000000.00","manage_quotation_grand_total_before":"950000.00","manage_quotation_mutation_type":"plus","manage_quotation_mutation_nominal":"50000.00","manage_quotation_ppn":"110000","manage_quotation_delivery_fee":"50000","manage_quotation_other":"20000","manage_quotation_payment_presentase":"50","manage_quotation_payment_nominal":"500000.00","manage_quotation_description":"Additional notes about the quotation","manage_quotation_shipping_term":null,"manage_quotation_franco":null,"manage_quotation_lead_time":null,"bank_account_id":"55682b94-7212-42d3-a69b-eae69279d264","bank_account_name":"John Doe","bank_account_number":"1234567890","bank_account_bank_name":"Bank Mandiri","term_content_id":"c3215d80-501a-48c9-a318-36f42f8b52ca","term_content_directory":"uploads/manage_quotation_term_contents/012_iec-msi_i_2026_5e29d66d-561b-4976-b3eb-49c317803c4b.json","include_aftersales_page":true,"include_msf_page":false,"properties":{"term_content_id":null,"bank_account_name":null,"bank_account_number":null,"term_content_directory":"uploads/manage_quotation_term_contents/012_iec-msi_i_2026_5e29d66d-561b-4976-b3eb-49c317803c4b.json"},"status":"submit","created_by":"f0b57258-5f33-4e03-81f7-cd70d833b5c5","updated_by":null,"deleted_by":null,"created_at":"2026-01-06T15:50:23.351Z","updated_at":"2026-01-06T15:50:23.351Z","deleted_at":null,"is_delete":false}],"pagination":{"page":1,"limit":1,"total":12,"totalPages":12}}}